{
 "settings" : {
   "debug" : true
 },
 "logs" : {
  "path" : "./logs/"
 },
 "database" : {
   "connection" : {
    "user"     : "postgres",
    "password" : "mysecretpassword",
    "host"     : "postgresql",
    "port"     : "5432",
    "database" : "postgres"
   },
   "schema"     : "my_schema",
   "authschema" : "my_schema"
 }
}