{
  "inputs" : {
    "dataset" : [
      { "name" : "name"         , "type" : "varchar"   , "default" : "false" , "desc" : "" , "filter" : "true"  , "composite" : "false" , "unique" : "false" , "index" : "false" } , 
      { "name" : "description"  , "type" : "varchar"   , "default" : "false" , "desc" : "" , "filter" : "false" , "composite" : "false" , "unique" : "false" , "index" : "false" } , 
      { "name" : "service"      , "type" : "varchar"   , "default" : "false" , "desc" : "" , "filter" : "false" , "composite" : "true"  , "unique" : "true"  , "index" : "false" } , 
      { "name" : "swagger"      , "type" : "varchar"   , "default" : "false" , "desc" : "" , "filter" : "false" , "composite" : "true"  , "unique" : "true"  , "index" : "false" } , 
      { "name" : "openapi"      , "type" : "varchar"   , "default" : "false" , "desc" : "" , "filter" : "false" , "composite" : "true"  , "unique" : "true"  , "index" : "false" } , 
      { "name" : "data"         , "type" : "varchar"   , "default" : "false" , "desc" : "" , "filter" : "false" , "composite" : "true"  , "unique" : "true"  , "index" : "false" } , 
      { "name" : "metadata"     , "type" : "varchar"   , "default" : "false" , "desc" : "" , "filter" : "false" , "composite" : "false" , "unique" : "false" , "index" : "false" } , 
      { "name" : "subscription" , "type" : "varchar"   , "default" : "false" , "desc" : "" , "filter" : "false" , "composite" : "true"  , "unique" : "true"  , "index" : "false" } , 
      { "name" : "user_id"      , "type" : "integer"   , "default" : "false" , "desc" : "" , "filter" : "true"  , "composite" : "false" , "unique" : "false" , "index" : "false" , "fkey" : "user_access.user_id" } 
    ],
    "map_user_to_dataset" : [
      { "name" : "user_id"     , "type" : "integer"   , "default" : "false" , "desc" : "" , "filter" : "false" , "composite" : "true"  , "unique" : "false" , "index" : "false" , "fkey" : "user_access.user_id" } ,
      { "name" : "dataset_id"  , "type" : "integer"   , "default" : "false" , "desc" : "" , "filter" : "false" , "composite" : "true"  , "unique" : "false" , "index" : "false" , "fkey" : "dataset.id" } ,
      { "name" : "token"       , "type" : "varchar"   , "default" : "false" , "desc" : "" , "filter" : "false" , "composite" : "false" , "unique" : "false" , "index" : "false"  } ,
      { "name" : "expires_on"  , "type" : "timestamp" , "default" : "false" , "desc" : "" , "filter" : "false" , "composite" : "false" , "unique" : "false" , "index" : "false"  } ,
      { "name" : "status"      , "type" : "integer"   , "default" : "1"     , "desc" : "" , "filter" : "false" , "composite" : "false" , "unique" : "false" , "index" : "false"  , "fkey" : "lst_of_val.id" } 
    ],
    "lst_of_val" : [
      { "name" : "type"        , "type" : "varchar"   , "default" : "false" , "desc" : "" , "filter" : "false" , "composite" : "true"  , "unique" : "false" , "index" : "false"  } ,
      { "name" : "value"       , "type" : "varchar"   , "default" : "false" , "desc" : "" , "filter" : "false" , "composite" : "true"  , "unique" : "false" , "index" : "false"  }
    ]
  },
  "defaultdata" : {
    "lst_of_val" : [
      { "type" : "subscription_status" , "value" : "pending" },
      { "type" : "subscription_status" , "value" : "declined" },
      { "type" : "subscription_status" , "value" : "accepted" },
      { "type" : "subscription_status" , "value" : "unsubscribed" }
    ]
  }
}